<svg xmlns="http://www.w3.org/2000/svg" xmlns:xlink="http://www.w3.org/1999/xlink" width="24" height="24" viewBox="0 0 24 24">
  <defs>
    <clipPath id="clip-path">
      <rect id="Rectangle_721" data-name="Rectangle 721" width="24" height="24" fill="#fff"/>
    </clipPath>
  </defs>
  <g id="Mask_Group_124" data-name="Mask Group 124" clip-path="url(#clip-path)">
    <g id="left-arrow" transform="translate(0 6.187)">
      <g id="Group_456" data-name="Group 456">
        <path id="Path_771" data-name="Path 771" d="M23.062,11.062H3.208L6.5,7.789A.938.938,0,0,0,5.174,6.46l-4.9,4.875h0a.938.938,0,0,0,0,1.327h0l4.9,4.875A.938.938,0,0,0,6.5,16.21L3.208,12.937H23.062a.937.937,0,1,0,0-1.875Z" transform="translate(0 -6.187)" fill="#fff"/>
      </g>
    </g>
  </g>
</svg>
