<svg id="button_arrow" data-name="button arrow" xmlns="http://www.w3.org/2000/svg" width="20" height="20" viewBox="0 0 20 20">
  <rect id="Rectangle_61" data-name="Rectangle 61" width="20" height="20" rx="10" transform="translate(0)" fill="#15677f"/>
  <g id="left-arrow" transform="translate(14 145) rotate(180)">
    <g id="Group_15" data-name="Group 15" transform="translate(0 132)">
      <path id="Path_13" data-name="Path 13" d="M13.453,134.844H1.871l1.919-1.909a.547.547,0,0,0-.772-.775L.161,135h0a.547.547,0,0,0,0,.774h0l2.858,2.844a.547.547,0,0,0,.772-.775l-1.918-1.909H13.453a.547.547,0,0,0,0-1.094Z" transform="translate(0 -132)" fill="#fff"/>
    </g>
  </g>
</svg>
