<svg xmlns="http://www.w3.org/2000/svg" xmlns:xlink="http://www.w3.org/1999/xlink" width="20" height="20" viewBox="0 0 20 20">
  <defs>
    <clipPath id="clip-path">
      <rect id="Rectangle_546" data-name="Rectangle 546" width="20" height="20" transform="translate(1445 3164)" fill="#15677f" stroke="#707070" stroke-width="1"/>
    </clipPath>
  </defs>
  <g id="Mask_Group_98" data-name="Mask Group 98" transform="translate(-1445 -3164)" clip-path="url(#clip-path)">
    <g id="calendar_1_" data-name="calendar (1)" transform="translate(1445 3164)">
      <g id="Group_372" data-name="Group 372">
        <g id="Group_371" data-name="Group 371">
          <path id="Path_740" data-name="Path 740" d="M17.656,1.563h-.937V0H15.156V1.563H4.844V0H3.281V1.563H2.344A2.346,2.346,0,0,0,0,3.906v13.75A2.346,2.346,0,0,0,2.344,20H17.656A2.346,2.346,0,0,0,20,17.656V3.906A2.346,2.346,0,0,0,17.656,1.563Zm.781,16.094a.782.782,0,0,1-.781.781H2.344a.782.782,0,0,1-.781-.781V7.344H18.438Zm0-11.875H1.563V3.906a.782.782,0,0,1,.781-.781h.938V4.688H4.844V3.125H15.156V4.688h1.563V3.125h.938a.782.782,0,0,1,.781.781Z" fill="#15677f"/>
        </g>
      </g>
      <g id="Group_374" data-name="Group 374">
        <g id="Group_373" data-name="Group 373">
          <rect id="Rectangle_555" data-name="Rectangle 555" width="1.563" height="1.563" transform="translate(2.969 8.984)" fill="#15677f"/>
        </g>
      </g>
      <g id="Group_376" data-name="Group 376">
        <g id="Group_375" data-name="Group 375">
          <rect id="Rectangle_556" data-name="Rectangle 556" width="1.563" height="1.563" transform="translate(6.094 8.984)" fill="#15677f"/>
        </g>
      </g>
      <g id="Group_378" data-name="Group 378">
        <g id="Group_377" data-name="Group 377">
          <rect id="Rectangle_557" data-name="Rectangle 557" width="1.563" height="1.563" transform="translate(9.219 8.984)" fill="#15677f"/>
        </g>
      </g>
      <g id="Group_380" data-name="Group 380">
        <g id="Group_379" data-name="Group 379">
          <rect id="Rectangle_558" data-name="Rectangle 558" width="1.563" height="1.563" transform="translate(12.344 8.984)" fill="#15677f"/>
        </g>
      </g>
      <g id="Group_382" data-name="Group 382">
        <g id="Group_381" data-name="Group 381">
          <rect id="Rectangle_559" data-name="Rectangle 559" width="1.563" height="1.563" transform="translate(15.469 8.984)" fill="#15677f"/>
        </g>
      </g>
      <g id="Group_384" data-name="Group 384">
        <g id="Group_383" data-name="Group 383">
          <rect id="Rectangle_560" data-name="Rectangle 560" width="1.563" height="1.563" transform="translate(2.969 12.109)" fill="#15677f"/>
        </g>
      </g>
      <g id="Group_386" data-name="Group 386">
        <g id="Group_385" data-name="Group 385">
          <rect id="Rectangle_561" data-name="Rectangle 561" width="1.563" height="1.563" transform="translate(6.094 12.109)" fill="#15677f"/>
        </g>
      </g>
      <g id="Group_388" data-name="Group 388">
        <g id="Group_387" data-name="Group 387">
          <rect id="Rectangle_562" data-name="Rectangle 562" width="1.563" height="1.563" transform="translate(9.219 12.109)" fill="#15677f"/>
        </g>
      </g>
      <g id="Group_390" data-name="Group 390">
        <g id="Group_389" data-name="Group 389">
          <rect id="Rectangle_563" data-name="Rectangle 563" width="1.563" height="1.563" transform="translate(12.344 12.109)" fill="#15677f"/>
        </g>
      </g>
      <g id="Group_392" data-name="Group 392">
        <g id="Group_391" data-name="Group 391">
          <rect id="Rectangle_564" data-name="Rectangle 564" width="1.563" height="1.563" transform="translate(2.969 15.234)" fill="#15677f"/>
        </g>
      </g>
      <g id="Group_394" data-name="Group 394">
        <g id="Group_393" data-name="Group 393">
          <rect id="Rectangle_565" data-name="Rectangle 565" width="1.563" height="1.563" transform="translate(6.094 15.234)" fill="#15677f"/>
        </g>
      </g>
      <g id="Group_396" data-name="Group 396">
        <g id="Group_395" data-name="Group 395">
          <rect id="Rectangle_566" data-name="Rectangle 566" width="1.563" height="1.563" transform="translate(9.219 15.234)" fill="#15677f"/>
        </g>
      </g>
      <g id="Group_398" data-name="Group 398">
        <g id="Group_397" data-name="Group 397">
          <rect id="Rectangle_567" data-name="Rectangle 567" width="1.563" height="1.563" transform="translate(12.344 15.234)" fill="#15677f"/>
        </g>
      </g>
      <g id="Group_400" data-name="Group 400">
        <g id="Group_399" data-name="Group 399">
          <rect id="Rectangle_568" data-name="Rectangle 568" width="1.563" height="1.563" transform="translate(15.469 12.109)" fill="#15677f"/>
        </g>
      </g>
    </g>
  </g>
</svg>
