<svg xmlns="http://www.w3.org/2000/svg" xmlns:xlink="http://www.w3.org/1999/xlink" width="20" height="20" viewBox="0 0 20 20">
  <defs>
    <clipPath id="clip-path">
      <rect id="Rectangle_722" data-name="Rectangle 722" width="20" height="20" transform="translate(95 3414)" fill="#fff" stroke="#707070" stroke-width="1"/>
    </clipPath>
  </defs>
  <g id="Mask_Group_125" data-name="Mask Group 125" transform="translate(-95 -3414)" clip-path="url(#clip-path)">
    <g id="tick_1_" data-name="tick (1)" transform="translate(95 3414)">
      <g id="Group_458" data-name="Group 458" transform="translate(4.811 6.46)">
        <g id="Group_457" data-name="Group 457">
          <path id="Path_772" data-name="Path 772" d="M13.551,4.775a.811.811,0,0,0-1.146-.03L7.228,9.653,4.759,7.118A.811.811,0,0,0,3.6,8.25l3.027,3.108a.811.811,0,0,0,1.139.023L13.52,5.921A.811.811,0,0,0,13.551,4.775Z" transform="translate(-3.368 -4.522)" fill="#fff"/>
        </g>
      </g>
      <g id="Group_460" data-name="Group 460">
        <g id="Group_459" data-name="Group 459">
          <path id="Path_773" data-name="Path 773" d="M10,0A10,10,0,1,0,20,10,10.011,10.011,0,0,0,10,0Zm0,18.378A8.378,8.378,0,1,1,18.378,10,8.388,8.388,0,0,1,10,18.378Z" fill="#fff"/>
        </g>
      </g>
    </g>
  </g>
</svg>
