<svg xmlns="http://www.w3.org/2000/svg" xmlns:xlink="http://www.w3.org/1999/xlink" width="14" height="14" viewBox="0 0 14 14">
  <defs>
    <clipPath id="clip-path">
      <rect id="Rectangle_410" data-name="Rectangle 410" width="14" height="14" transform="translate(395 1001)" fill="#15677f" stroke="#707070" stroke-width="1"/>
    </clipPath>
  </defs>
  <g id="Mask_Group_55" data-name="Mask Group 55" transform="translate(-395 -1001)" clip-path="url(#clip-path)">
    <path id="plus-icon" d="M17.045,10.045H11.323V4.323a.639.639,0,1,0-1.278,0v5.722H4.323a.639.639,0,1,0,0,1.278h5.722v5.722a.639.639,0,1,0,1.278,0V11.323h5.722a.639.639,0,1,0,0-1.278Z" transform="translate(391.316 997.316)" fill="#15677f"/>
  </g>
</svg>
